{
  "files": {
    "main.css": "/material-dashboard-react/static/css/main.d7ea28e7.chunk.css",
    "main.js": "/material-dashboard-react/static/js/main.f5d4465b.chunk.js",
    "main.js.map": "/material-dashboard-react/static/js/main.f5d4465b.chunk.js.map",
    "runtime-main.js": "/material-dashboard-react/static/js/runtime-main.58e9b67f.js",
    "runtime-main.js.map": "/material-dashboard-react/static/js/runtime-main.58e9b67f.js.map",
    "static/css/2.774ce268.chunk.css": "/material-dashboard-react/static/css/2.774ce268.chunk.css",
    "static/js/2.9accf887.chunk.js": "/material-dashboard-react/static/js/2.9accf887.chunk.js",
    "static/js/2.9accf887.chunk.js.map": "/material-dashboard-react/static/js/2.9accf887.chunk.js.map",
    "index.html": "/material-dashboard-react/index.html",
    "precache-manifest.422c8325ddf822b929de0934ec219926.js": "/material-dashboard-react/precache-manifest.422c8325ddf822b929de0934ec219926.js",
    "service-worker.js": "/material-dashboard-react/service-worker.js",
    "static/css/2.774ce268.chunk.css.map": "/material-dashboard-react/static/css/2.774ce268.chunk.css.map",
    "static/css/main.d7ea28e7.chunk.css.map": "/material-dashboard-react/static/css/main.d7ea28e7.chunk.css.map",
    "static/js/2.9accf887.chunk.js.LICENSE.txt": "/material-dashboard-react/static/js/2.9accf887.chunk.js.LICENSE.txt",
    "static/media/DUTY_PART.svg": "/material-dashboard-react/static/media/DUTY_PART.cd5ee4dd.svg",
    "static/media/ILLEGAL_STOP.svg": "/material-dashboard-react/static/media/ILLEGAL_STOP.07d75970.svg",
    "static/media/OBSERVATION.svg": "/material-dashboard-react/static/media/OBSERVATION.90ae0a37.svg",
    "static/media/PERSON_IDENTIFICATION.svg": "/material-dashboard-react/static/media/PERSON_IDENTIFICATION.5ace4580.svg",
    "static/media/camera.svg": "/material-dashboard-react/static/media/camera.00a8a17b.svg",
    "static/media/camera2.svg": "/material-dashboard-react/static/media/camera2.02730643.svg",
    "static/media/error.svg": "/material-dashboard-react/static/media/error.5a47f8d5.svg",
    "static/media/internetServerError.svg": "/material-dashboard-react/static/media/internetServerError.a9ab83cc.svg",
    "static/media/logo-mvd.png": "/material-dashboard-react/static/media/logo-mvd.478033be.png",
    "static/media/metro.svg": "/material-dashboard-react/static/media/metro.ea650fe9.svg",
    "static/media/mvd-office.jpg": "/material-dashboard-react/static/media/mvd-office.b70dec48.jpg",
    "static/media/sidebar-4.jpg": "/material-dashboard-react/static/media/sidebar-4.fc9cb053.jpg",
    "static/media/success.svg": "/material-dashboard-react/static/media/success.5a335056.svg",
    "static/media/transport.svg": "/material-dashboard-react/static/media/transport.7c159e41.svg",
    "static/media/undraw_Memory_storage_reh0.svg": "/material-dashboard-react/static/media/undraw_Memory_storage_reh0.21d51b22.svg",
    "static/media/undraw_xmas_surprise_57p1.svg": "/material-dashboard-react/static/media/undraw_xmas_surprise_57p1.0cd1f2a7.svg",
    "static/media/upload.svg": "/material-dashboard-react/static/media/upload.75938720.svg",
    "static/media/user.png": "/material-dashboard-react/static/media/user.055a9197.png"
  },
  "entrypoints": [
    "static/js/runtime-main.58e9b67f.js",
    "static/css/2.774ce268.chunk.css",
    "static/js/2.9accf887.chunk.js",
    "static/css/main.d7ea28e7.chunk.css",
    "static/js/main.f5d4465b.chunk.js"
  ]
}